Multiple Imputation of Grocery Store Information
…
To execute this imputation, we will use the mice package for R. We have two datasets:

A dataset of grocery stores, most with no information than store name, type, and location.

A dataset of block group socioeconomic data for the state of Utah.

tar_load(all_groceries, store = here("_targets/"))
all_groceries

Simple feature collection with 1162 features and 15 fields
Geometry type: POINT
Dimension:     XY
Bounding box:  xmin: -114.0427 ymin: 36.7188 xmax: -108.1351 ymax: 41.97618
Geodetic CRS:  WGS 84
# A tibble: 1,162 × 16
   county id    Name  type  pharm…¹ ethnic merch regis…² selfc…³ total…⁴ avail…⁵
 * <chr>  <chr> <chr> <chr> <lgl>   <lgl>  <lgl>   <dbl>   <dbl>   <dbl>   <dbl>
 1 Salt … SL-0… Luck… Groc… FALSE   FALSE  FALSE      10       8      18      25
 2 Salt … SL-0… Vida… Groc… FALSE   TRUE   FALSE       3       0       3      12
 3 Salt … SL-0… Pere… Groc… FALSE   TRUE   FALSE       3       0       3       9
 4 Salt … SL-0… Mace… Doll… FALSE   FALSE  FALSE       4       0       4       5
 5 Salt … SL-0… Harm… Groc… TRUE    FALSE  FALSE       9       5      14      25
 6 Salt … SL-0… Fami… Doll… FALSE   FALSE  FALSE       2       0       2      10
 7 Salt … SL-0… Fami… Doll… FALSE   FALSE  FALSE       2       0       2      11
 8 Salt … SL-0… Smit… Groc… FALSE   FALSE  FALSE       9       8      17      28
 9 Salt … SL-0… John… Groc… FALSE   FALSE  FALSE       3       0       3      21
10 Salt … SL-0… Fami… Doll… FALSE   FALSE  FALSE       2       0       2      12
# … with 1,152 more rows, 5 more variables: cost <dbl>, market <dbl>,
#   brand <chr>, area <dbl>, geometry <POINT [°]>, and abbreviated variable
#   names ¹​pharmacy, ²​registers, ³​selfchecko, ⁴​total_registers, ⁵​availability
…
(knn_groceries <- bind_cols(all_groceries, neighborstats) |> 
    select(id, county, type, pharmacy:brand, population:income) |> 
    st_set_geometry(NULL))

# A tibble: 1,162 × 17
   id    county type  pharm…¹ ethnic merch regis…² selfc…³ total…⁴ avail…⁵  cost
 * <chr> <chr>  <chr> <lgl>   <lgl>  <lgl>   <dbl>   <dbl>   <dbl>   <dbl> <dbl>
 1 SL-0… Salt … Groc… FALSE   FALSE  FALSE      10       8      18      25     4
 2 SL-0… Salt … Groc… FALSE   TRUE   FALSE       3       0       3      12     5
 3 SL-0… Salt … Groc… FALSE   TRUE   FALSE       3       0       3       9     0
 4 SL-0… Salt … Doll… FALSE   FALSE  FALSE       4       0       4       5     1
 5 SL-0… Salt … Groc… TRUE    FALSE  FALSE       9       5      14      25     1
 6 SL-0… Salt … Doll… FALSE   FALSE  FALSE       2       0       2      10     1
 7 SL-0… Salt … Doll… FALSE   FALSE  FALSE       2       0       2      11     4
 8 SL-0… Salt … Groc… FALSE   FALSE  FALSE       9       8      17      28     3
 9 SL-0… Salt … Groc… FALSE   FALSE  FALSE       3       0       3      21     7
10 SL-0… Salt … Doll… FALSE   FALSE  FALSE       2       0       2      12     1
# … with 1,152 more rows, 6 more variables: market <dbl>, brand <chr>,
#   population <dbl>, households <dbl>, density <dbl>, income <dbl>, and
#   abbreviated variable names ¹​pharmacy, ²​registers, ³​selfchecko,
#   ⁴​total_registers, ⁵​availability
…
